<?xml version="1.0" encoding="utf-8"?>
<!-- Generator: Adobe Illustrator 16.0.0, SVG Export Plug-In . SVG Version: 6.00 Build 0)  -->
<!DOCTYPE svg PUBLIC "-//W3C//DTD SVG 1.1//EN" "http://www.w3.org/Graphics/SVG/1.1/DTD/svg11.dtd">
<svg version="1.1" id="Layer_1" xmlns="http://www.w3.org/2000/svg" xmlns:xlink="http://www.w3.org/1999/xlink" x="0px" y="0px"
	 width="45px" height="44.9px" viewBox="0 0 45 44.9" enable-background="new 0 0 45 44.9" xml:space="preserve">
<g>
	<path fill="#058ACC" d="M25.3,17.5c-0.3,0.3-0.3,0.6,0.4,1.3c0.8,0.8,3.4,1.7,4.8,3.1c2.9,2.9,1.6,7-0.9,9.5
		c-5.3,5.2-16.4,5.6-25.2,4.2c0.6,0.8,1.4,1.7,2.2,2.5c8.7,9,23,9,31.8,0.2c5.5-5.5,7.5-13,6.2-20.1c-1.4-0.1-3.6-0.7-6.5-1.4
		C36.9,16.6,27.3,15.5,25.3,17.5z"/>
	<path fill="#058ACC" d="M22.8,27.1c0.6-0.6,0.2-1.9-0.3-2.4c-0.8-0.8-5.6-3.2-7.5-5.1c-1.2-1.1-0.4-4.2,0.1-4.8
		c0.3-0.4,0.8-1.1,1.4-1.6c5.1-5,16-5,24.3-4c-0.6-0.9-1.4-1.9-2.3-2.7C29.6-2.2,15.3-2.1,6.5,6.6C1.1,12-1,19.8,0.5,26.8
		c0.7,0.1,2,0.5,4.2,0.9C8.7,28.6,20.4,29.5,22.8,27.1z"/>
</g>
<g>
</g>
<g>
</g>
<g>
</g>
<g>
</g>
<g>
</g>
<g>
</g>
<g>
</g>
<g>
</g>
<g>
</g>
<g>
</g>
<g>
</g>
<g>
</g>
<g>
</g>
<g>
</g>
<g>
</g>
</svg>
